{
  "project_info": {
    "project_number": "709028524298",
    "firebase_url": "https://starfinda-1521794400426.firebaseio.com",
    "project_id": "starfinda-1521794400426",
    "storage_bucket": "starfinda-1521794400426.appspot.com"
  },
  "client": [
    {
      "client_info": {
        "mobilesdk_app_id": "1:709028524298:android:32b7dfb86158381a",
        "android_client_info": {
          "package_name": "com.starfinda"
        }
      },
      "oauth_client": [
        {
          "client_id": "709028524298-s8bijce8hifd1h24ppr7dh09kl6h49nk.apps.googleusercontent.com",
          "client_type": 1,
          "android_info": {
            "package_name": "com.starfinda",
            "certificate_hash": "1de1f0cf62372864e95aa87576c58c0883867c5f"
          }
        },
        {
          "client_id": "709028524298-o0d0uqc1u9u0uk9dil2orap4r4ll8m4s.apps.googleusercontent.com",
          "client_type": 1,
          "android_info": {
            "package_name": "com.starfinda",
            "certificate_hash": "4b5363f265ff25e461a04ed984284ebea003ad51"
          }
        },
        {
          "client_id": "709028524298-sedvllrtibnaorgstntf3qumk4hs6uv7.apps.googleusercontent.com",
          "client_type": 1,
          "android_info": {
            "package_name": "com.starfinda",
            "certificate_hash": "f48bba10e321e4591dc69125fbb0b4a54a4a9d4e"
          }
        },
        {
          "client_id": "709028524298-jsst3u1o4l0vni3j1kd0nusfmqgrui2a.apps.googleusercontent.com",
          "client_type": 3
        },
        {
          "client_id": "709028524298-sa8vdgsm8bgab2h583p85betk8v6skj3.apps.googleusercontent.com",
          "client_type": 1,
          "android_info": {
            "package_name": "com.starfinda",
            "certificate_hash": "648a9823f61d16608aea5735c2c0c16ccd5e4b58"
          }
        },
        {
          "client_id": "709028524298-jmeboka7bhja0ep357ve8nt0lq6tba4f.apps.googleusercontent.com",
          "client_type": 3
        }
      ],
      "api_key": [
        {
          "current_key": "AIzaSyARhfuaBZon4t6ffm2oHWVNj6VZ7KXoTKw"
        }
      ],
      "services": {
        "analytics_service": {
          "status": 1
        },
        "appinvite_service": {
          "status": 2,
          "other_platform_oauth_client": [
            {
              "client_id": "709028524298-u9jsngru8h16jvtmc89534j8qioe0896.apps.googleusercontent.com",
              "client_type": 2,
              "ios_info": {
                "bundle_id": "com.appster.starfinda",
                "app_store_id": "1243363181"
              }
            },
            {
              "client_id": "709028524298-jsst3u1o4l0vni3j1kd0nusfmqgrui2a.apps.googleusercontent.com",
              "client_type": 3
            }
          ]
        },
        "ads_service": {
          "status": 2
        }
      }
    }
  ],
  "configuration_version": "1"
}